[
  {
    "keyword": "Feature",
    "name": "Verify Product in Automation Practice",
    "line": 1,
    "id": "verify-product-in-automation-practice",
    "tags": [],
    "uri": "verifyToDoScenario.feature",
    "elements": [
      {
        "id": "verify-product-in-automation-practice;search-product-in-search",
        "keyword": "Scenario",
        "line": 2,
        "name": "search product in search",
        "tags": [],
        "type": "scenario",
        "steps": [
          {
            "arguments": [],
            "keyword": "Given ",
            "line": 3,
            "name": "Open the url",
            "result": {
              "status": "passed",
              "duration": 40371000000
            }
          },
          {
            "arguments": [],
            "keyword": "Then ",
            "line": 4,
            "name": "Customer should land in Automation Practice page.Validate Title should be 'Search - My Store'",
            "result": {
              "status": "passed",
              "duration": 14000000
            }
          },
          {
            "arguments": [],
            "keyword": "When ",
            "line": 5,
            "name": "Enter Values to search 'Evening Dresses'",
            "result": {
              "status": "passed",
              "duration": 527000000
            }
          },
          {
            "arguments": [],
            "keyword": "And ",
            "line": 6,
            "name": "Click the Search button",
            "result": {
              "status": "passed",
              "duration": 11872000000
            }
          },
          {
            "arguments": [],
            "keyword": "Then ",
            "line": 7,
            "name": "Search Result should be displayed",
            "result": {
              "status": "passed",
              "duration": 45000000
            }
          }
        ]
      }
    ]
  }
]