{
    "$schema": "https://on.cypress.io/cypress.schema.json",
    "testFiles": "**/*.{feature,features}",
    "env": {
        "test_url":"http://automationpractice.com/index.php",
        "url": "http://automationpractice.com/index.php"
      }
    
}
